{
  "title": "User GET response schema",
  "type": "object",
  "properties": {
    "user": {
      "type": "object",
      "properties": {
        "id": {
          "type": "number"
        },
        "national_id": {
          "type": "string"
        },
        "first_name": {
          "type": ["string", "null"]
        },
        "last_name": {
          "type": ["string", "null"]
        },
        "locale": {
          "type": "string"
        },
        "super": {
          "type": "boolean"
        },
        "workspaces": {
          "type": "array"
        },
        "shared_slug": {
          "anyOf": [
            {"type": "number"},
            {"type": "null"}
          ]
        }
      },
      "required": ["national_id", "id"]
    },
    "company": {
      "type": ["object", "null"],
      "properties": {
        "id": {
          "type": "number"
        },
        "name": {
          "type": "string"
        },
        "number": {
          "type": "string"
        }
      },
    "roles": {
      "type": "array"
    }
    }
  }
}